<svg xmlns="http://www.w3.org/2000/svg" viewBox="0 0 61.7 61.7">
  <defs>
    <style>
      .cls-1 {
        fill: #2b303a;
      }
    </style>
  </defs>
  <path id="Path_123" data-name="Path 123" class="cls-1" d="M60.724,24.439H55.41a25.389,25.389,0,0,0-2.663-6.423l3.76-3.76a.96.96,0,0,0,0-1.374L48.818,5.194a.988.988,0,0,0-.687-.289.938.938,0,0,0-.687.289l-3.76,3.76a25.389,25.389,0,0,0-6.423-2.663V.976A.972.972,0,0,0,36.285,0H25.415a.972.972,0,0,0-.976.976V6.291a25.389,25.389,0,0,0-6.423,2.663l-3.76-3.76a.988.988,0,0,0-.687-.289.938.938,0,0,0-.687.289L5.194,12.882a.988.988,0,0,0-.289.687.919.919,0,0,0,.289.687l3.76,3.76a25.389,25.389,0,0,0-2.663,6.423H.976A.972.972,0,0,0,0,25.415v10.87a.972.972,0,0,0,.976.976H6.291a25.389,25.389,0,0,0,2.663,6.423l-3.76,3.76a.988.988,0,0,0-.289.687.938.938,0,0,0,.289.687l7.688,7.688a.96.96,0,0,0,1.374,0l3.76-3.76a25.39,25.39,0,0,0,6.423,2.663v5.314a.972.972,0,0,0,.976.976h10.87a.972.972,0,0,0,.976-.976V55.41a25.389,25.389,0,0,0,6.423-2.663l3.76,3.76a.96.96,0,0,0,1.374,0l7.688-7.688a.96.96,0,0,0,0-1.374l-3.76-3.76a25.39,25.39,0,0,0,2.663-6.423h5.314a.972.972,0,0,0,.976-.976V25.415A.972.972,0,0,0,60.724,24.439Zm-.976,10.87h-5.11a.969.969,0,0,0-.952.759,23.115,23.115,0,0,1-3,7.243.983.983,0,0,0,.133,1.205l3.615,3.615-6.315,6.315L44.5,50.83A.967.967,0,0,0,43.3,50.7a23.115,23.115,0,0,1-7.243,3,.969.969,0,0,0-.759.952v5.11H26.391V54.65a.979.979,0,0,0-.759-.952,23.4,23.4,0,0,1-7.243-3,.983.983,0,0,0-1.205.133l-3.615,3.615L7.255,48.131l3.615-3.615A.967.967,0,0,0,11,43.311a23.115,23.115,0,0,1-3-7.243.969.969,0,0,0-.952-.759h-5.1V26.391h5.11a.979.979,0,0,0,.952-.759,23.115,23.115,0,0,1,3-7.243.983.983,0,0,0-.133-1.205L7.267,13.569l6.315-6.315L17.2,10.87A.967.967,0,0,0,18.4,11a23.115,23.115,0,0,1,7.243-3A.969.969,0,0,0,26.4,7.05v-5.1h8.906v5.11a.979.979,0,0,0,.759.952,23.4,23.4,0,0,1,7.243,3,.983.983,0,0,0,1.205-.133l3.615-3.615,6.315,6.315L50.83,17.2A.967.967,0,0,0,50.7,18.4a23.115,23.115,0,0,1,3,7.243.969.969,0,0,0,.952.759h5.11v8.906ZM48.6,30.356V30.2c0-.108-.012-.217-.012-.325a.41.41,0,0,0-.012-.121v-.06c-.012-.1-.012-.2-.024-.3,0-.048-.012-.1-.012-.145V29.2a2.34,2.34,0,0,1-.024-.289c-.012-.06-.012-.133-.024-.181l-.036-.289c-.012-.06-.012-.121-.024-.181-.012-.1-.036-.193-.048-.289l-.012-.048c-.012-.036-.012-.084-.024-.121a2.22,2.22,0,0,0-.06-.3v-.024c-.012-.048-.012-.1-.024-.133-.024-.121-.048-.241-.072-.349V26.97a.767.767,0,0,0-.024-.084c-.072-.3-.145-.615-.241-.916l-.024-.084-.108-.362-.036-.121c-.036-.108-.072-.2-.108-.313-.012-.048-.036-.1-.048-.145l-.108-.289a.831.831,0,0,0-.048-.121l-.012-.036-.108-.289-.06-.145c-.036-.1-.084-.181-.121-.277a.737.737,0,0,1-.06-.145c-.048-.1-.084-.193-.133-.289l-.012-.024-.036-.072c0-.012-.012-.024-.012-.036A17.844,17.844,0,0,0,44,18.92l-.024-.024-.108-.108c-.06-.06-.121-.133-.181-.193-.024-.036-.06-.06-.084-.1l-.036-.036c-.06-.06-.121-.121-.181-.193l-.1-.1-.036-.036-.181-.181a.972.972,0,0,0-1.338,1.41,1.919,1.919,0,0,1,.157.157l.121.121.169.169.036.036.072.072c.048.06.108.108.157.169l.084.1.012.012a15.317,15.317,0,0,1,2.6,3.88c0,.012.012.012.012.024l.024.06c.036.084.084.169.121.253.024.036.036.084.06.121l.108.253.06.133a2.173,2.173,0,0,1,.1.253l.012.036a.83.83,0,0,1,.036.1c.036.084.06.169.1.265.012.036.024.084.036.121.036.1.06.181.1.289l.036.108c.036.108.06.217.1.313l.024.084c.072.265.145.542.217.819l.024.084c.024.108.048.2.072.313.012.036.012.072.024.108v.036a2.225,2.225,0,0,1,.048.277l.024.157c.012.084.024.169.036.265.012.06.012.108.024.157.012.084.024.169.036.265.012.048.012.108.024.157.012.084.012.169.024.253l.012.169c.012.084.012.181.024.265v.169c0,.1.012.193.012.289v.566a16.627,16.627,0,0,1-.241,2.8c-.048.253-.1.518-.157.771-.024.133-.06.253-.1.386-.06.253-.133.494-.217.747a3.517,3.517,0,0,0-.578-.277l-2.543-1.024v-.024a3.832,3.832,0,0,0,1.506-1.868,2.221,2.221,0,0,0,1.145-3.82V27.44a4.9,4.9,0,0,0-4.893-4.893H40.25a4.879,4.879,0,0,0-3.133,1.145,6.385,6.385,0,0,0-6.05-4.4h-.446a6.357,6.357,0,0,0-6.05,4.411,4.857,4.857,0,0,0-3.145-1.157h-.337A4.9,4.9,0,0,0,16.2,27.44v1.073a2.2,2.2,0,0,0-.723,1.627,2.229,2.229,0,0,0,1.88,2.193,3.815,3.815,0,0,0,1.506,1.856v.024l-2.627,1.024a3.839,3.839,0,0,0-.506.241,3.324,3.324,0,0,1-.1-.325c-.036-.121-.072-.253-.1-.374l-.181-.759a15.692,15.692,0,0,1-.325-3.193v-.578a2.322,2.322,0,0,1,.012-.289l.012-.169a2.164,2.164,0,0,1,.024-.265l.012-.169c.012-.084.012-.169.024-.253a.711.711,0,0,1,.024-.169l.036-.253c.012-.06.012-.108.024-.169l.036-.253.024-.169c.012-.084.036-.169.048-.265v-.036c.012-.036.012-.072.024-.108a2.665,2.665,0,0,0,.06-.3l.024-.108c.06-.277.133-.542.2-.819l.024-.084c.036-.1.06-.2.1-.3a.223.223,0,0,0,.024-.084l.012-.036c.024-.084.06-.181.084-.265.012-.024.024-.06.036-.084l.012-.048c.036-.084.06-.169.1-.253.012-.048.036-.1.048-.145.036-.084.06-.157.1-.241.024-.048.036-.1.06-.145a2.01,2.01,0,0,0,.1-.241,1.414,1.414,0,0,1,.06-.133c.036-.084.072-.157.108-.241l.036-.084c0-.012.012-.012.012-.024a16.456,16.456,0,0,1,2.6-3.88l.012-.012.06-.072c.06-.06.121-.133.181-.193l.1-.108.169-.169.169-.169.108-.108.121-.121c.06-.048.108-.1.169-.145s.084-.072.133-.108.108-.1.169-.145l.133-.108c.06-.048.108-.1.169-.145l.108-.1.217-.169c.036-.024.072-.06.121-.1l.169-.133.145-.108c.06-.048.121-.084.169-.121l.024-.012c.048-.036.084-.06.133-.1s.121-.084.181-.121.1-.06.145-.1a1.57,1.57,0,0,0,.181-.121l.024-.012c.048-.024.084-.06.133-.084l.181-.108.048-.024c.036-.024.072-.036.108-.06.06-.036.108-.06.169-.1l.084-.048c.036-.012.06-.036.1-.048a.9.9,0,0,0,.145-.084l.121-.06.072-.036.217-.108.169-.084c.108-.048.2-.1.313-.145a.361.361,0,0,0,.1-.048l.108-.048c.048-.024.108-.048.157-.072a.831.831,0,0,0,.1-.036l.121-.048c.048-.024.1-.036.145-.06s.084-.036.121-.048l.1-.036c.06-.024.108-.036.157-.06l.2-.072c.06-.024.121-.036.181-.06s.1-.036.145-.048l.084-.024c.048-.012.1-.036.157-.048s.121-.036.181-.06.133-.036.193-.06.133-.036.193-.048.133-.036.2-.048.121-.036.193-.048.133-.036.2-.048a1.5,1.5,0,0,0,.193-.048l.169-.036.036-.012.193-.036.2-.036.193-.036.217-.036h.036c.048-.012.1-.012.157-.024s.121-.012.181-.024l.108-.012c.036,0,.072-.012.121-.012s.108-.012.169-.012l.121-.012c.036,0,.072-.012.121-.012.072,0,.133-.012.2-.012l.2-.012c.072,0,.157-.012.229-.012H31.2l.193.012a1.458,1.458,0,0,1,.229.012l.217.012c.072,0,.133.012.2.012a.452.452,0,0,1,.121.012l.121.012c.06,0,.108.012.169.012s.084.012.133.012l.06.012c.072.012.145.012.217.024l.157.024.072.012c.06.012.121.012.169.024l.193.036c.072.012.145.024.2.036l.193.036.2.036a1.643,1.643,0,0,1,.2.048c.06.012.133.036.193.048s.133.036.193.048.133.036.193.048.121.036.193.048a1.185,1.185,0,0,1,.193.06c.06.024.121.036.193.06s.121.036.193.06.133.036.193.06a.9.9,0,0,0,.193.06l.048.012c.048.012.1.036.145.048a.945.945,0,0,0,.169.06l.06.024a.737.737,0,0,1,.145.06c.048.024.1.036.145.06l.108.048c.036.012.072.036.108.048l.181.072.084.036c.036.012.072.036.108.048.1.036.181.084.289.133.06.036.121.06.193.1l.036.012c.06.036.133.06.193.1a.716.716,0,0,1,.1.048l.1.048c.048.024.108.06.157.084s.072.036.108.06l.084.048c.048.024.108.06.157.084a1.783,1.783,0,0,0,.157.1l.036.024c.048.024.1.06.145.084l.108.072.048.024.181.108a1.1,1.1,0,0,0,.157.1.974.974,0,0,0,1.073-1.627c-.06-.036-.108-.072-.169-.108s-.133-.084-.2-.121l-.048-.024a.433.433,0,0,1-.121-.084c-.06-.036-.121-.072-.169-.108l-.024-.012L39.7,15.4a1.317,1.317,0,0,0-.181-.1l-.072-.048c-.048-.024-.084-.048-.133-.072s-.121-.06-.181-.1l-.084-.048a1.115,1.115,0,0,0-.121-.06c-.072-.036-.157-.072-.229-.108l-.036-.024a1.707,1.707,0,0,0-.217-.1l-.325-.145c-.048-.024-.084-.036-.133-.06l-.072-.024a1.47,1.47,0,0,0-.2-.084,1.414,1.414,0,0,1-.133-.06l-.108-.048c-.06-.024-.108-.048-.169-.072a.944.944,0,0,0-.169-.06l-.048-.024c-.06-.024-.133-.048-.193-.072s-.108-.036-.169-.06l-.036-.012-.217-.072c-.072-.024-.145-.048-.2-.072l-.217-.072a1.457,1.457,0,0,0-.217-.06c-.072-.024-.145-.036-.217-.06s-.145-.036-.217-.06-.145-.036-.217-.06-.145-.036-.217-.06-.157-.036-.217-.048-.145-.036-.217-.048-.157-.036-.229-.048a1.957,1.957,0,0,1-.229-.048l-.229-.036-.217-.036a1.055,1.055,0,0,0-.193-.024l-.072-.012a.93.93,0,0,0-.181-.024l-.241-.036h-.06c-.048-.012-.108-.012-.157-.024s-.133-.012-.193-.024l-.121-.012c-.048,0-.1-.012-.145-.012-.072,0-.157-.012-.229-.012l-.229-.012c-.084,0-.169-.012-.265-.012h-1.35c-.084,0-.181.012-.265.012l-.229.012c-.072,0-.157.012-.229.012-.048,0-.1.012-.145.012L29.2,13.1a1.055,1.055,0,0,0-.193.024c-.048,0-.1.012-.145.012l-.121.012c-.072.012-.133.012-.2.024s-.121.012-.181.024h-.036c-.072.012-.157.024-.241.036l-.217.036-.229.036a1.4,1.4,0,0,0-.217.048l-.036.012L27.2,13.4c-.072.012-.145.036-.217.048s-.157.036-.229.048a1.4,1.4,0,0,1-.217.048c-.072.024-.145.036-.229.06s-.145.036-.217.06-.145.036-.217.06-.145.036-.2.06a.7.7,0,0,0-.169.06l-.084.024c-.06.024-.121.036-.169.06-.072.024-.133.048-.2.072l-.072.024c-.048.012-.1.036-.145.048s-.121.048-.193.072l-.084.036a.737.737,0,0,0-.145.06l-.181.072-.108.036a1.414,1.414,0,0,0-.133.06,1.216,1.216,0,0,0-.181.084l-.1.048a1.12,1.12,0,0,0-.121.06,3.122,3.122,0,0,0-.349.169l-.193.1c-.084.036-.169.084-.253.121-.036.012-.072.036-.108.048l-.108.06c-.06.036-.121.06-.181.1a1.12,1.12,0,0,1-.121.06l-.084.048c-.06.036-.133.072-.181.108a.5.5,0,0,0-.133.084l-.036.024c-.072.036-.145.084-.2.121a1.784,1.784,0,0,1-.157.1l-.024.012a1.963,1.963,0,0,0-.2.133c-.06.036-.108.072-.169.108s-.133.084-.2.133l-.145.108-.024.012c-.06.048-.121.084-.193.133s-.108.084-.169.121-.133.1-.193.145a.92.92,0,0,1-.133.1l-.253.193a.844.844,0,0,1-.121.1c-.06.048-.121.108-.181.157l-.157.133c-.06.048-.121.108-.181.157s-.1.084-.145.121a1.29,1.29,0,0,1-.193.169l-.133.121-.133.133-.181.181c-.06.06-.121.133-.193.193l-.024.036-.084.084c-.072.072-.145.145-.2.217l-.024.024-.06.06-.012.012a17.891,17.891,0,0,0-2.9,4.3c-.012.012-.012.024-.024.036l-.048.108c-.036.084-.084.181-.121.277-.024.048-.048.108-.072.157-.036.084-.072.181-.108.265a1.351,1.351,0,0,0-.06.157c-.036.084-.072.181-.108.277a1.351,1.351,0,0,0-.06.157c-.036.1-.072.181-.108.277l-.012.048-.036.108a2.712,2.712,0,0,0-.1.289l-.012.036c-.012.036-.024.084-.036.121-.036.108-.072.229-.1.337l-.012.036c-.012.024-.012.048-.024.072-.084.3-.169.6-.229.9-.012.036-.012.06-.024.1l-.012.036c-.024.108-.048.229-.072.337a.622.622,0,0,0-.024.133v.024c-.024.1-.036.2-.06.3-.012.048-.012.1-.024.133l-.012.048c-.012.1-.036.193-.048.289a1.055,1.055,0,0,0-.024.193c-.012.1-.024.193-.036.277-.012.06-.012.133-.024.193a2.159,2.159,0,0,0-.024.289v.06c0,.048-.012.084-.012.133-.012.1-.012.193-.024.3v.06a.41.41,0,0,1-.012.121c0,.108-.012.217-.012.325l-.012.157c0,.157-.012.325-.012.482a17.765,17.765,0,0,0,.362,3.579c.06.289.121.578.193.856.036.145.072.277.121.422a17.885,17.885,0,0,0,6.291,9.243,17.771,17.771,0,0,0,27.62-8.411c.048-.133.1-.277.133-.41.084-.277.169-.566.241-.844l.108-.434.181-.868a18.17,18.17,0,0,0,.277-3.145A1.838,1.838,0,0,1,48.6,30.356ZM37.43,26.62a2.943,2.943,0,0,1,2.82-2.109h.325a2.944,2.944,0,0,1,2.94,2.94v.012a2.222,2.222,0,0,1-.747-1.145.954.954,0,0,0-.759-.735.988.988,0,0,0-.988.386,4.779,4.779,0,0,1-3.362,1.579,1.354,1.354,0,0,0-.241-.217V26.62Zm3.3,6.254h-.627a1.9,1.9,0,0,1-1.892-1.892v-.422a.587.587,0,0,0-.012-.145,2.575,2.575,0,0,0,.2-1.012,7.462,7.462,0,0,0,3.121-1.217,3.414,3.414,0,0,0,1.1,1.012v1.784A1.88,1.88,0,0,1,40.732,32.875Zm.084,1.952-.422.434-.422-.41v-.024h.844Zm-4.6-5.953c.024,0,.036.012.06.012a.732.732,0,0,1,.193.506.712.712,0,0,1-.253.554Zm-.253,3.193a1.824,1.824,0,0,0,.446-.084A3.851,3.851,0,0,0,38.032,34.2v.024l-2.615,1.024a3.78,3.78,0,0,0-.711.362l-.916-.362v-.494A4.862,4.862,0,0,0,35.96,32.067ZM31.284,33.5h-.856a2.983,2.983,0,0,1-2.977-2.977V28.078a9.754,9.754,0,0,0,5.013-1.928,4.3,4.3,0,0,0,1.784,1.711v2.675A2.962,2.962,0,0,1,31.284,33.5Zm.554,1.916v.47l-1.012,1.048-.94-.928v-.59a4.146,4.146,0,0,0,.554.036H31.3Zm-5.628-9.749a4.413,4.413,0,0,1,4.411-4.411h.446a4.413,4.413,0,0,1,4.411,4.411v.554h-.012c-.012,0-.012,0-.024-.012-1.289-.289-1.711-2.012-1.711-2.025a.97.97,0,0,0-.759-.735.988.988,0,0,0-.988.386C30.3,26.174,26.524,26.2,26.476,26.2h-.133a.09.09,0,0,0-.06.012c-.012,0-.024.012-.048.012a.044.044,0,0,0-.036.012v-.566ZM25.4,28.91a.352.352,0,0,0,.108-.024V29.97a.727.727,0,0,1-.108-1.06Zm-.121,3.085a3.1,3.1,0,0,0,.482.084,4.945,4.945,0,0,0,2.169,2.687v.482l-1,.386a3.693,3.693,0,0,0-.735-.374l-2.543-1.024v-.024A3.889,3.889,0,0,0,25.283,31.995Zm-7.134-4.423v-.108a2.937,2.937,0,0,1,2.94-2.94h.325a2.947,2.947,0,0,1,2.844,2.193v.615c-.012.012-.036.024-.048.036a2.447,2.447,0,0,1-.6-1.036.954.954,0,0,0-.759-.735.988.988,0,0,0-.988.386C20.836,27.4,18.57,27.548,18.149,27.572Zm3.422,5.3h-.627a1.9,1.9,0,0,1-1.892-1.892V29.44a7.345,7.345,0,0,0,3.314-1.253,3.321,3.321,0,0,0,.928.9,2.519,2.519,0,0,0-.012.3,2.737,2.737,0,0,0,.193,1v.59A1.9,1.9,0,0,1,21.571,32.875Zm.084,1.952-.422.434-.41-.41v-.024h.832Zm-.964,7.134v.988a15.774,15.774,0,0,1-4.242-5.58,1.874,1.874,0,0,1,.458-.265.072.072,0,0,1,.048-.012l2.4-.94,1.229,1.205a.948.948,0,0,0,.675.277h.012a.931.931,0,0,0,.687-.3l1.157-1.193,1.277.518-.3.121A5.286,5.286,0,0,0,20.691,41.961Zm18.281,2.446a15.773,15.773,0,0,1-16.329-.072V41.949a3.484,3.484,0,0,1,2.1-3.374c.012,0,.036-.012.048-.012l3.519-1.374,1.868,1.82a.955.955,0,0,0,.687.277h.012a.931.931,0,0,0,.687-.3l1.759-1.832,3.507,1.41c.012.012.024.012.048.012a3.47,3.47,0,0,1,2.109,3.374v2.458Zm1.952-1.374V41.961a5.377,5.377,0,0,0-3.4-5.206l-.289-.121L38.5,36.14l1.229,1.205a.948.948,0,0,0,.675.277h.012a.95.95,0,0,0,.687-.3l1.157-1.193,2.386.952c.024.012.012.012.036.012a2.111,2.111,0,0,1,.53.325A15.576,15.576,0,0,1,40.925,43.033Z" transform="translate(0)"/>
</svg>
