<svg xmlns="http://www.w3.org/2000/svg" viewBox="0 0 24.516 46.203">
  <defs>
    <style>
      .cls-1 {
        fill: none;
        stroke: #fff;
        stroke-width: 2px;
      }
    </style>
  </defs>
  <path id="Path_91" data-name="Path 91" class="cls-1" d="M5460.45,4431l-22.395,22.395,22.395,22.395" transform="translate(-5436.641 -4430.293)"/>
</svg>
