<svg xmlns="http://www.w3.org/2000/svg" viewBox="0 0 23.455 45.496">
  <defs>
    <style>
      .cls-1 {
        fill: none;
        stroke: #2b303a;
      }
    </style>
  </defs>
  <path id="Path_89" data-name="Path 89" class="cls-1" d="M5460.45,4431l-22.395,22.395,22.395,22.395" transform="translate(-5437.348 -4430.646)"/>
</svg>
