<svg xmlns="http://www.w3.org/2000/svg" viewBox="0 0 100.272 53.471">
  <defs>
    <style>
      .cls-1 {
        fill: #2b303a;
      }
    </style>
  </defs>
  <path id="Path_120" data-name="Path 120" class="cls-1" d="M1.674,46.88H10.2a8.332,8.332,0,0,0,14.873,3.3,8.344,8.344,0,0,0,11.647,1.778,8.244,8.244,0,0,0,3.226-5.074H73.7a8.354,8.354,0,0,0,16.372,0H98.6a1.674,1.674,0,0,0,1.674-1.674V32.513a21.15,21.15,0,0,0-.593-5.021L96.036,12.148a6.685,6.685,0,0,0-6.556-5.37H39.474L36.6,1.024A1.663,1.663,0,0,0,35.1.1H11.7a1.7,1.7,0,0,0-1.5.924L7.323,6.76H1.674A1.674,1.674,0,0,0,0,8.434V45.189A1.678,1.678,0,0,0,1.674,46.88Zm16.7,3.33a5.021,5.021,0,1,1,5-5.021,5.023,5.023,0,0,1-5,5.021Zm13.373,0a5.021,5.021,0,1,1,5.021-5.021A5.023,5.023,0,0,1,31.75,50.21Zm50.128,0A5.021,5.021,0,1,1,86.9,45.189a5.023,5.023,0,0,1-5.021,5.021ZM96.419,28.259c.017.07.017.157.035.227h-12.9v-11.7H93.7ZM12.728,3.43H34.052l1.674,3.348H11.054Zm-9.38,6.678H89.48a3.4,3.4,0,0,1,3.3,2.737l.157.593H3.348ZM80.2,16.786v11.7H70.179v-11.7Zm-13.356,0v11.7H56.823v-11.7Zm-13.373,0v11.7H43.45v-11.7Zm-13.373,0v11.7H30.077v-11.7Zm-13.373,0v11.7H16.7v-11.7Zm-23.381,0H13.373v11.7H3.348Zm0,21.725H6.7V35.163H3.348V31.815H96.89c0,.227.035.453.035.68v2.668H93.577v3.348h3.348v5.021H90.073c0-.035-.017-.052-.035-.087A8.069,8.069,0,0,0,89.6,42.05c-.07-.174-.157-.314-.227-.471a7.489,7.489,0,0,0-.488-.889,4.7,4.7,0,0,0-.349-.471c-.192-.244-.384-.488-.593-.715a3.275,3.275,0,0,0-.436-.418,7.18,7.18,0,0,0-.7-.575c-.174-.122-.331-.244-.506-.349-.279-.157-.558-.314-.837-.453a5.086,5.086,0,0,0-.54-.244,9.722,9.722,0,0,0-1.011-.314c-.174-.035-.331-.1-.488-.139a8.1,8.1,0,0,0-3.173,0,3.988,3.988,0,0,0-.488.139,9.723,9.723,0,0,0-1.011.314c-.192.07-.349.174-.541.244-.279.139-.558.279-.837.453-.174.1-.331.227-.506.349a5.561,5.561,0,0,0-.7.575c-.157.139-.3.279-.436.418-.209.227-.4.471-.593.715-.122.157-.244.314-.349.471-.174.279-.331.575-.488.889a3.914,3.914,0,0,0-.227.471,8.069,8.069,0,0,0-.436,1.395c0,.035-.017.052-.035.087H39.945c0-.035-.017-.052-.035-.087a8.068,8.068,0,0,0-.436-1.395c-.07-.174-.157-.314-.227-.471a7.488,7.488,0,0,0-.488-.889,4.7,4.7,0,0,0-.349-.471c-.192-.244-.384-.488-.593-.715a3.275,3.275,0,0,0-.436-.418,7.18,7.18,0,0,0-.7-.575c-.174-.122-.331-.244-.506-.349-.279-.157-.541-.314-.837-.453a5.087,5.087,0,0,0-.541-.244q-.5-.183-.994-.314c-.174-.035-.331-.1-.506-.139a7.751,7.751,0,0,0-3.1,0l-.262.052a8.789,8.789,0,0,0-1.36.418l-.244.1a8.733,8.733,0,0,0-1.255.68l-.07.052a7.515,7.515,0,0,0-1.081.889,1.572,1.572,0,0,1-.174.157,8.021,8.021,0,0,0-.715.819,8.387,8.387,0,0,0-.732-.837,1.573,1.573,0,0,0-.174-.157A7.515,7.515,0,0,0,23.05,38.3l-.07-.052a8.732,8.732,0,0,0-1.255-.68l-.244-.1a8.789,8.789,0,0,0-1.36-.418l-.262-.052a7.751,7.751,0,0,0-3.1,0,3.989,3.989,0,0,0-.488.139,8.281,8.281,0,0,0-.994.314c-.192.07-.349.174-.541.244a7.512,7.512,0,0,0-.819.453c-.174.1-.331.227-.506.349a5.56,5.56,0,0,0-.7.575c-.157.139-.3.279-.436.418-.209.227-.4.471-.593.715-.122.157-.244.314-.349.471a7.253,7.253,0,0,0-.488.889,3.913,3.913,0,0,0-.227.471,8.068,8.068,0,0,0-.436,1.395c0,.035-.017.052-.035.087h-6.8Zm0,0M40.1,35.181H73.526v3.348H40.1Z" transform="translate(0 -0.1)"/>
</svg>
